{
    "name": "StartupModule",
    "rootNamespace": "",
    "references": [
        "GUID:f51ebe6a0ceec4240a699833d6309b23",
        "GUID:0247f1eb23e0c4c038c3e89018c2de6f",
        "GUID:8fb3b1a1799da804f94afe4151a2add9",
        "GUID:3d6a882bf0964a5cbd9862eeaed7300c",
        "GUID:30ec3284733df164c9b50a1fc8e5f56f",
        "GUID:76511ddb2c4547b49b013b8d5f974609",
        "GUID:38c493dc77024c349b704faba6dc7ce6"
    ],
    "includePlatforms": [],
    "excludePlatforms": [],
    "allowUnsafeCode": false,
    "overrideReferences": false,
    "precompiledReferences": [],
    "autoReferenced": true,
    "defineConstraints": [],
    "versionDefines": [],
    "noEngineReferences": false
}